<?xml version="1.0" encoding="UTF-8" standalone="no"?>
<!-- Created with Inkscape (http://www.inkscape.org/) -->

<svg
   xmlns:dc="http://purl.org/dc/elements/1.1/"
   xmlns:cc="http://creativecommons.org/ns#"
   xmlns:rdf="http://www.w3.org/1999/02/22-rdf-syntax-ns#"
   xmlns:svg="http://www.w3.org/2000/svg"
   xmlns="http://www.w3.org/2000/svg"
   xmlns:sodipodi="http://sodipodi.sourceforge.net/DTD/sodipodi-0.dtd"
   xmlns:inkscape="http://www.inkscape.org/namespaces/inkscape"
   version="1.1"
   id="svg539"
   xml:space="preserve"
   width="221.77174"
   height="252.66006"
   viewBox="0 0 221.77174 252.66005"
   sodipodi:docname="koch-iterationen.svg"
   inkscape:version="0.92.4 (5da689c313, 2019-01-14)"><metadata
     id="metadata545"><rdf:RDF><cc:Work
         rdf:about=""><dc:format>image/svg+xml</dc:format><dc:type
           rdf:resource="http://purl.org/dc/dcmitype/StillImage" /><dc:title></dc:title></cc:Work></rdf:RDF></metadata><defs
     id="defs543"><clipPath
       clipPathUnits="userSpaceOnUse"
       id="clipPath557"><path
         d="m 513.059,1810.08 h 5101.37 V 6109.92 H 513.059 Z"
         id="path555"
         inkscape:connector-curvature="0" /></clipPath></defs><sodipodi:namedview
     pagecolor="#ffffff"
     bordercolor="#666666"
     borderopacity="1"
     objecttolerance="10"
     gridtolerance="10"
     guidetolerance="10"
     inkscape:pageopacity="0"
     inkscape:pageshadow="2"
     inkscape:window-width="1920"
     inkscape:window-height="1017"
     id="namedview541"
     showgrid="false"
     fit-margin-top="10"
     fit-margin-bottom="10"
     fit-margin-left="10"
     fit-margin-right="10"
     inkscape:zoom="3.4314881"
     inkscape:cx="110.88587"
     inkscape:cy="126.33003"
     inkscape:window-x="-8"
     inkscape:window-y="-8"
     inkscape:window-maximized="1"
     inkscape:current-layer="g547" /><g
     id="g547"
     inkscape:groupmode="layer"
     inkscape:label="ink_ext_XXXXXX"
     transform="matrix(1.3333333,0,0,-1.3333333,-300.10297,694.54668)"><g
       id="g549"
       transform="scale(0.1)"><g
         id="g551"><g
           id="g553"
           clip-path="url(#clipPath557)"><path
             d="m 2333.37,4694.12 h 1498.2 l -749.1,-1297.48 -749.1,1297.48"
             style="fill:none;stroke:#000000;stroke-width:14.98200035;stroke-linecap:round;stroke-linejoin:round;stroke-miterlimit:10;stroke-dasharray:none;stroke-opacity:1"
             id="path559"
             inkscape:connector-curvature="0" /><path
             d="m 2832.77,4694.12 249.7,432.49 249.7,-432.49"
             style="fill:none;stroke:#87ceeb;stroke-width:14.98200035;stroke-linecap:round;stroke-linejoin:round;stroke-miterlimit:10;stroke-dasharray:none;stroke-opacity:1"
             id="path561"
             inkscape:connector-curvature="0" /><path
             d="m 3581.87,4261.63 249.7,-432.5 h -499.4"
             style="fill:none;stroke:#87ceeb;stroke-width:14.98200035;stroke-linecap:round;stroke-linejoin:round;stroke-miterlimit:10;stroke-dasharray:none;stroke-opacity:1"
             id="path563"
             inkscape:connector-curvature="0" /><path
             d="m 2832.77,3829.13 h -499.4 l 249.7,432.5"
             style="fill:none;stroke:#87ceeb;stroke-width:14.98200035;stroke-linecap:round;stroke-linejoin:round;stroke-miterlimit:10;stroke-dasharray:none;stroke-opacity:1"
             id="path565"
             inkscape:connector-curvature="0" /><path
             d="m 2499.84,4694.12 83.23,144.16 83.23,-144.16"
             style="fill:none;stroke:#ffd700;stroke-width:14.98200035;stroke-linecap:round;stroke-linejoin:round;stroke-miterlimit:10;stroke-dasharray:none;stroke-opacity:1"
             id="path567"
             inkscape:connector-curvature="0" /><path
             d="m 2916.01,4838.28 -83.24,144.17 h 166.47"
             style="fill:none;stroke:#ffd700;stroke-width:14.98200035;stroke-linecap:round;stroke-linejoin:round;stroke-miterlimit:10;stroke-dasharray:none;stroke-opacity:1"
             id="path569"
             inkscape:connector-curvature="0" /><path
             d="m 3165.71,4982.45 h 166.46 l -83.23,-144.17"
             style="fill:none;stroke:#ffd700;stroke-width:14.98200035;stroke-linecap:round;stroke-linejoin:round;stroke-miterlimit:10;stroke-dasharray:none;stroke-opacity:1"
             id="path571"
             inkscape:connector-curvature="0" /><path
             d="m 3498.64,4694.12 83.23,144.16 83.24,-144.16"
             style="fill:none;stroke:#ffd700;stroke-width:14.98200035;stroke-linecap:round;stroke-linejoin:round;stroke-miterlimit:10;stroke-dasharray:none;stroke-opacity:1"
             id="path573"
             inkscape:connector-curvature="0" /><path
             d="m 3748.34,4549.95 83.23,-144.16 h -166.46"
             style="fill:none;stroke:#ffd700;stroke-width:14.98200035;stroke-linecap:round;stroke-linejoin:round;stroke-miterlimit:10;stroke-dasharray:none;stroke-opacity:1"
             id="path575"
             inkscape:connector-curvature="0" /><path
             d="m 3665.11,4117.46 h 166.46 l -83.23,-144.16"
             style="fill:none;stroke:#ffd700;stroke-width:14.98200035;stroke-linecap:round;stroke-linejoin:round;stroke-miterlimit:10;stroke-dasharray:none;stroke-opacity:1"
             id="path577"
             inkscape:connector-curvature="0" /><path
             d="m 3665.11,3829.13 -83.24,-144.16 -83.23,144.16"
             style="fill:none;stroke:#ffd700;stroke-width:14.98200035;stroke-linecap:round;stroke-linejoin:round;stroke-miterlimit:10;stroke-dasharray:none;stroke-opacity:1"
             id="path579"
             inkscape:connector-curvature="0" /><path
             d="m 3248.94,3684.97 83.23,-144.17 h -166.46"
             style="fill:none;stroke:#ffd700;stroke-width:14.98200035;stroke-linecap:round;stroke-linejoin:round;stroke-miterlimit:10;stroke-dasharray:none;stroke-opacity:1"
             id="path581"
             inkscape:connector-curvature="0" /><path
             d="m 2999.24,3540.8 h -166.47 l 83.24,144.17"
             style="fill:none;stroke:#ffd700;stroke-width:14.98200035;stroke-linecap:round;stroke-linejoin:round;stroke-miterlimit:10;stroke-dasharray:none;stroke-opacity:1"
             id="path583"
             inkscape:connector-curvature="0" /><path
             d="m 2666.3,3829.13 -83.23,-144.16 -83.23,144.16"
             style="fill:none;stroke:#ffd700;stroke-width:14.98200035;stroke-linecap:round;stroke-linejoin:round;stroke-miterlimit:10;stroke-dasharray:none;stroke-opacity:1"
             id="path585"
             inkscape:connector-curvature="0" /><path
             d="m 2416.61,3973.3 -83.24,144.16 h 166.47"
             style="fill:none;stroke:#ffd700;stroke-width:14.98200035;stroke-linecap:round;stroke-linejoin:round;stroke-miterlimit:10;stroke-dasharray:none;stroke-opacity:1"
             id="path587"
             inkscape:connector-curvature="0" /><path
             d="m 2499.84,4405.79 h -166.47 l 83.24,144.16"
             style="fill:none;stroke:#ffd700;stroke-width:14.98200035;stroke-linecap:round;stroke-linejoin:round;stroke-miterlimit:10;stroke-dasharray:none;stroke-opacity:1"
             id="path589"
             inkscape:connector-curvature="0" /><path
             d="m 2388.86,4694.12 27.75,48.05 27.74,-48.05"
             style="fill:none;stroke:#ff0000;stroke-width:14.98200035;stroke-linecap:round;stroke-linejoin:round;stroke-miterlimit:10;stroke-dasharray:none;stroke-opacity:1"
             id="path591"
             inkscape:connector-curvature="0" /><path
             d="m 2527.59,4742.17 -27.75,48.06 h 55.49"
             style="fill:none;stroke:#ff0000;stroke-width:14.98200035;stroke-linecap:round;stroke-linejoin:round;stroke-miterlimit:10;stroke-dasharray:none;stroke-opacity:1"
             id="path593"
             inkscape:connector-curvature="0" /><path
             d="m 2610.82,4790.23 h 55.48 l -27.74,-48.06"
             style="fill:none;stroke:#ff0000;stroke-width:14.98200035;stroke-linecap:round;stroke-linejoin:round;stroke-miterlimit:10;stroke-dasharray:none;stroke-opacity:1"
             id="path595"
             inkscape:connector-curvature="0" /><path
             d="m 2721.8,4694.12 27.74,48.05 27.75,-48.05"
             style="fill:none;stroke:#ff0000;stroke-width:14.98200035;stroke-linecap:round;stroke-linejoin:round;stroke-miterlimit:10;stroke-dasharray:none;stroke-opacity:1"
             id="path597"
             inkscape:connector-curvature="0" /><path
             d="m 2860.52,4742.17 -27.75,48.06 h 55.49"
             style="fill:none;stroke:#ff0000;stroke-width:14.98200035;stroke-linecap:round;stroke-linejoin:round;stroke-miterlimit:10;stroke-dasharray:none;stroke-opacity:1"
             id="path599"
             inkscape:connector-curvature="0" /><path
             d="m 2888.26,4886.34 h -55.49 l 27.75,48.05"
             style="fill:none;stroke:#ff0000;stroke-width:14.98200035;stroke-linecap:round;stroke-linejoin:round;stroke-miterlimit:10;stroke-dasharray:none;stroke-opacity:1"
             id="path601"
             inkscape:connector-curvature="0" /><path
             d="m 2888.26,4982.45 27.75,48.05 27.74,-48.05"
             style="fill:none;stroke:#ff0000;stroke-width:14.98200035;stroke-linecap:round;stroke-linejoin:round;stroke-miterlimit:10;stroke-dasharray:none;stroke-opacity:1"
             id="path603"
             inkscape:connector-curvature="0" /><path
             d="m 3026.98,5030.5 -27.74,48.06 h 55.49"
             style="fill:none;stroke:#ff0000;stroke-width:14.98200035;stroke-linecap:round;stroke-linejoin:round;stroke-miterlimit:10;stroke-dasharray:none;stroke-opacity:1"
             id="path605"
             inkscape:connector-curvature="0" /><path
             d="m 3110.22,5078.56 h 55.49 l -27.75,-48.06"
             style="fill:none;stroke:#ff0000;stroke-width:14.98200035;stroke-linecap:round;stroke-linejoin:round;stroke-miterlimit:10;stroke-dasharray:none;stroke-opacity:1"
             id="path607"
             inkscape:connector-curvature="0" /><path
             d="m 3221.2,4982.45 27.74,48.05 27.74,-48.05"
             style="fill:none;stroke:#ff0000;stroke-width:14.98200035;stroke-linecap:round;stroke-linejoin:round;stroke-miterlimit:10;stroke-dasharray:none;stroke-opacity:1"
             id="path609"
             inkscape:connector-curvature="0" /><path
             d="m 3304.43,4934.39 27.74,-48.05 h -55.49"
             style="fill:none;stroke:#ff0000;stroke-width:14.98200035;stroke-linecap:round;stroke-linejoin:round;stroke-miterlimit:10;stroke-dasharray:none;stroke-opacity:1"
             id="path611"
             inkscape:connector-curvature="0" /><path
             d="m 3276.68,4790.23 h 55.49 l -27.74,-48.06"
             style="fill:none;stroke:#ff0000;stroke-width:14.98200035;stroke-linecap:round;stroke-linejoin:round;stroke-miterlimit:10;stroke-dasharray:none;stroke-opacity:1"
             id="path613"
             inkscape:connector-curvature="0" /><path
             d="m 3387.66,4694.12 27.75,48.05 27.74,-48.05"
             style="fill:none;stroke:#ff0000;stroke-width:14.98200035;stroke-linecap:round;stroke-linejoin:round;stroke-miterlimit:10;stroke-dasharray:none;stroke-opacity:1"
             id="path615"
             inkscape:connector-curvature="0" /><path
             d="m 3526.38,4742.17 -27.74,48.06 h 55.49"
             style="fill:none;stroke:#ff0000;stroke-width:14.98200035;stroke-linecap:round;stroke-linejoin:round;stroke-miterlimit:10;stroke-dasharray:none;stroke-opacity:1"
             id="path617"
             inkscape:connector-curvature="0" /><path
             d="m 3609.62,4790.23 h 55.49 l -27.75,-48.06"
             style="fill:none;stroke:#ff0000;stroke-width:14.98200035;stroke-linecap:round;stroke-linejoin:round;stroke-miterlimit:10;stroke-dasharray:none;stroke-opacity:1"
             id="path619"
             inkscape:connector-curvature="0" /><path
             d="m 3720.59,4694.12 27.75,48.05 27.75,-48.05"
             style="fill:none;stroke:#ff0000;stroke-width:14.98200035;stroke-linecap:round;stroke-linejoin:round;stroke-miterlimit:10;stroke-dasharray:none;stroke-opacity:1"
             id="path621"
             inkscape:connector-curvature="0" /><path
             d="m 3803.83,4646.06 27.74,-48.05 h -55.48"
             style="fill:none;stroke:#ff0000;stroke-width:14.98200035;stroke-linecap:round;stroke-linejoin:round;stroke-miterlimit:10;stroke-dasharray:none;stroke-opacity:1"
             id="path623"
             inkscape:connector-curvature="0" /><path
             d="m 3776.09,4501.9 h 55.48 l -27.74,-48.06"
             style="fill:none;stroke:#ff0000;stroke-width:14.98200035;stroke-linecap:round;stroke-linejoin:round;stroke-miterlimit:10;stroke-dasharray:none;stroke-opacity:1"
             id="path625"
             inkscape:connector-curvature="0" /><path
             d="m 3776.09,4405.79 -27.75,-48.06 -27.75,48.06"
             style="fill:none;stroke:#ff0000;stroke-width:14.98200035;stroke-linecap:round;stroke-linejoin:round;stroke-miterlimit:10;stroke-dasharray:none;stroke-opacity:1"
             id="path627"
             inkscape:connector-curvature="0" /><path
             d="m 3637.36,4357.73 27.75,-48.05 h -55.49"
             style="fill:none;stroke:#ff0000;stroke-width:14.98200035;stroke-linecap:round;stroke-linejoin:round;stroke-miterlimit:10;stroke-dasharray:none;stroke-opacity:1"
             id="path629"
             inkscape:connector-curvature="0" /><path
             d="m 3609.62,4213.57 h 55.49 l -27.75,-48.05"
             style="fill:none;stroke:#ff0000;stroke-width:14.98200035;stroke-linecap:round;stroke-linejoin:round;stroke-miterlimit:10;stroke-dasharray:none;stroke-opacity:1"
             id="path631"
             inkscape:connector-curvature="0" /><path
             d="m 3720.59,4117.46 27.75,48.06 27.75,-48.06"
             style="fill:none;stroke:#ff0000;stroke-width:14.98200035;stroke-linecap:round;stroke-linejoin:round;stroke-miterlimit:10;stroke-dasharray:none;stroke-opacity:1"
             id="path633"
             inkscape:connector-curvature="0" /><path
             d="m 3803.83,4069.41 27.74,-48.06 h -55.48"
             style="fill:none;stroke:#ff0000;stroke-width:14.98200035;stroke-linecap:round;stroke-linejoin:round;stroke-miterlimit:10;stroke-dasharray:none;stroke-opacity:1"
             id="path635"
             inkscape:connector-curvature="0" /><path
             d="m 3776.09,3925.24 h 55.48 l -27.74,-48.05"
             style="fill:none;stroke:#ff0000;stroke-width:14.98200035;stroke-linecap:round;stroke-linejoin:round;stroke-miterlimit:10;stroke-dasharray:none;stroke-opacity:1"
             id="path637"
             inkscape:connector-curvature="0" /><path
             d="m 3776.09,3829.13 -27.75,-48.05 -27.75,48.05"
             style="fill:none;stroke:#ff0000;stroke-width:14.98200035;stroke-linecap:round;stroke-linejoin:round;stroke-miterlimit:10;stroke-dasharray:none;stroke-opacity:1"
             id="path639"
             inkscape:connector-curvature="0" /><path
             d="m 3637.36,3781.08 27.75,-48.06 h -55.49"
             style="fill:none;stroke:#ff0000;stroke-width:14.98200035;stroke-linecap:round;stroke-linejoin:round;stroke-miterlimit:10;stroke-dasharray:none;stroke-opacity:1"
             id="path641"
             inkscape:connector-curvature="0" /><path
             d="m 3554.13,3733.02 h -55.49 l 27.74,48.06"
             style="fill:none;stroke:#ff0000;stroke-width:14.98200035;stroke-linecap:round;stroke-linejoin:round;stroke-miterlimit:10;stroke-dasharray:none;stroke-opacity:1"
             id="path643"
             inkscape:connector-curvature="0" /><path
             d="m 3443.15,3829.13 -27.74,-48.05 -27.75,48.05"
             style="fill:none;stroke:#ff0000;stroke-width:14.98200035;stroke-linecap:round;stroke-linejoin:round;stroke-miterlimit:10;stroke-dasharray:none;stroke-opacity:1"
             id="path645"
             inkscape:connector-curvature="0" /><path
             d="m 3304.43,3781.08 27.74,-48.06 h -55.49"
             style="fill:none;stroke:#ff0000;stroke-width:14.98200035;stroke-linecap:round;stroke-linejoin:round;stroke-miterlimit:10;stroke-dasharray:none;stroke-opacity:1"
             id="path647"
             inkscape:connector-curvature="0" /><path
             d="m 3276.68,3636.91 h 55.49 l -27.74,-48.05"
             style="fill:none;stroke:#ff0000;stroke-width:14.98200035;stroke-linecap:round;stroke-linejoin:round;stroke-miterlimit:10;stroke-dasharray:none;stroke-opacity:1"
             id="path649"
             inkscape:connector-curvature="0" /><path
             d="m 3276.68,3540.8 -27.74,-48.05 -27.74,48.05"
             style="fill:none;stroke:#ff0000;stroke-width:14.98200035;stroke-linecap:round;stroke-linejoin:round;stroke-miterlimit:10;stroke-dasharray:none;stroke-opacity:1"
             id="path651"
             inkscape:connector-curvature="0" /><path
             d="m 3137.96,3492.75 27.75,-48.05 h -55.49"
             style="fill:none;stroke:#ff0000;stroke-width:14.98200035;stroke-linecap:round;stroke-linejoin:round;stroke-miterlimit:10;stroke-dasharray:none;stroke-opacity:1"
             id="path653"
             inkscape:connector-curvature="0" /><path
             d="m 3054.73,3444.7 h -55.49 l 27.74,48.05"
             style="fill:none;stroke:#ff0000;stroke-width:14.98200035;stroke-linecap:round;stroke-linejoin:round;stroke-miterlimit:10;stroke-dasharray:none;stroke-opacity:1"
             id="path655"
             inkscape:connector-curvature="0" /><path
             d="m 2943.75,3540.8 -27.74,-48.05 -27.75,48.05"
             style="fill:none;stroke:#ff0000;stroke-width:14.98200035;stroke-linecap:round;stroke-linejoin:round;stroke-miterlimit:10;stroke-dasharray:none;stroke-opacity:1"
             id="path657"
             inkscape:connector-curvature="0" /><path
             d="m 2860.52,3588.86 -27.75,48.05 h 55.49"
             style="fill:none;stroke:#ff0000;stroke-width:14.98200035;stroke-linecap:round;stroke-linejoin:round;stroke-miterlimit:10;stroke-dasharray:none;stroke-opacity:1"
             id="path659"
             inkscape:connector-curvature="0" /><path
             d="m 2888.26,3733.02 h -55.49 l 27.75,48.06"
             style="fill:none;stroke:#ff0000;stroke-width:14.98200035;stroke-linecap:round;stroke-linejoin:round;stroke-miterlimit:10;stroke-dasharray:none;stroke-opacity:1"
             id="path661"
             inkscape:connector-curvature="0" /><path
             d="m 2777.29,3829.13 -27.75,-48.05 -27.74,48.05"
             style="fill:none;stroke:#ff0000;stroke-width:14.98200035;stroke-linecap:round;stroke-linejoin:round;stroke-miterlimit:10;stroke-dasharray:none;stroke-opacity:1"
             id="path663"
             inkscape:connector-curvature="0" /><path
             d="m 2638.56,3781.08 27.74,-48.06 h -55.48"
             style="fill:none;stroke:#ff0000;stroke-width:14.98200035;stroke-linecap:round;stroke-linejoin:round;stroke-miterlimit:10;stroke-dasharray:none;stroke-opacity:1"
             id="path665"
             inkscape:connector-curvature="0" /><path
             d="m 2555.33,3733.02 h -55.49 l 27.75,48.06"
             style="fill:none;stroke:#ff0000;stroke-width:14.98200035;stroke-linecap:round;stroke-linejoin:round;stroke-miterlimit:10;stroke-dasharray:none;stroke-opacity:1"
             id="path667"
             inkscape:connector-curvature="0" /><path
             d="m 2444.35,3829.13 -27.74,-48.05 -27.75,48.05"
             style="fill:none;stroke:#ff0000;stroke-width:14.98200035;stroke-linecap:round;stroke-linejoin:round;stroke-miterlimit:10;stroke-dasharray:none;stroke-opacity:1"
             id="path669"
             inkscape:connector-curvature="0" /><path
             d="m 2361.12,3877.19 -27.75,48.05 h 55.49"
             style="fill:none;stroke:#ff0000;stroke-width:14.98200035;stroke-linecap:round;stroke-linejoin:round;stroke-miterlimit:10;stroke-dasharray:none;stroke-opacity:1"
             id="path671"
             inkscape:connector-curvature="0" /><path
             d="m 2388.86,4021.35 h -55.49 l 27.75,48.06"
             style="fill:none;stroke:#ff0000;stroke-width:14.98200035;stroke-linecap:round;stroke-linejoin:round;stroke-miterlimit:10;stroke-dasharray:none;stroke-opacity:1"
             id="path673"
             inkscape:connector-curvature="0" /><path
             d="m 2388.86,4117.46 27.75,48.06 27.74,-48.06"
             style="fill:none;stroke:#ff0000;stroke-width:14.98200035;stroke-linecap:round;stroke-linejoin:round;stroke-miterlimit:10;stroke-dasharray:none;stroke-opacity:1"
             id="path675"
             inkscape:connector-curvature="0" /><path
             d="m 2527.59,4165.52 -27.75,48.05 h 55.49"
             style="fill:none;stroke:#ff0000;stroke-width:14.98200035;stroke-linecap:round;stroke-linejoin:round;stroke-miterlimit:10;stroke-dasharray:none;stroke-opacity:1"
             id="path677"
             inkscape:connector-curvature="0" /><path
             d="m 2555.33,4309.68 h -55.49 l 27.75,48.05"
             style="fill:none;stroke:#ff0000;stroke-width:14.98200035;stroke-linecap:round;stroke-linejoin:round;stroke-miterlimit:10;stroke-dasharray:none;stroke-opacity:1"
             id="path679"
             inkscape:connector-curvature="0" /><path
             d="m 2444.35,4405.79 -27.74,-48.06 -27.75,48.06"
             style="fill:none;stroke:#ff0000;stroke-width:14.98200035;stroke-linecap:round;stroke-linejoin:round;stroke-miterlimit:10;stroke-dasharray:none;stroke-opacity:1"
             id="path681"
             inkscape:connector-curvature="0" /><path
             d="m 2361.12,4453.84 -27.75,48.06 h 55.49"
             style="fill:none;stroke:#ff0000;stroke-width:14.98200035;stroke-linecap:round;stroke-linejoin:round;stroke-miterlimit:10;stroke-dasharray:none;stroke-opacity:1"
             id="path683"
             inkscape:connector-curvature="0" /><path
             d="m 2388.86,4598.01 h -55.49 l 27.75,48.05"
             style="fill:none;stroke:#ff0000;stroke-width:14.98200035;stroke-linecap:round;stroke-linejoin:round;stroke-miterlimit:10;stroke-dasharray:none;stroke-opacity:1"
             id="path685"
             inkscape:connector-curvature="0" /></g></g></g></g></svg>