<?xml version="1.0" encoding="UTF-8" standalone="no"?>
<!-- Created with Inkscape (http://www.inkscape.org/) -->

<svg
   xmlns:dc="http://purl.org/dc/elements/1.1/"
   xmlns:cc="http://creativecommons.org/ns#"
   xmlns:rdf="http://www.w3.org/1999/02/22-rdf-syntax-ns#"
   xmlns:svg="http://www.w3.org/2000/svg"
   xmlns="http://www.w3.org/2000/svg"
   xmlns:sodipodi="http://sodipodi.sourceforge.net/DTD/sodipodi-0.dtd"
   xmlns:inkscape="http://www.inkscape.org/namespaces/inkscape"
   version="1.1"
   id="svg1435"
   xml:space="preserve"
   width="398.32278"
   height="398.32278"
   viewBox="0 0 398.32278 398.32277"
   sodipodi:docname="koch-viereckig3it.svg"
   inkscape:version="0.92.4 (5da689c313, 2019-01-14)"><metadata
     id="metadata1441"><rdf:RDF><cc:Work
         rdf:about=""><dc:format>image/svg+xml</dc:format><dc:type
           rdf:resource="http://purl.org/dc/dcmitype/StillImage" /><dc:title></dc:title></cc:Work></rdf:RDF></metadata><defs
     id="defs1439"><clipPath
       clipPathUnits="userSpaceOnUse"
       id="clipPath1453"><path
         d="m 513.059,1810.08 h 5101.37 V 6109.92 H 513.059 Z"
         id="path1451"
         inkscape:connector-curvature="0" /></clipPath></defs><sodipodi:namedview
     pagecolor="#ffffff"
     bordercolor="#666666"
     borderopacity="1"
     objecttolerance="10"
     gridtolerance="10"
     guidetolerance="10"
     inkscape:pageopacity="0"
     inkscape:pageshadow="2"
     inkscape:window-width="1920"
     inkscape:window-height="1017"
     id="namedview1437"
     showgrid="false"
     fit-margin-top="10"
     fit-margin-left="10"
     fit-margin-bottom="10"
     fit-margin-right="10"
     inkscape:zoom="2.1766267"
     inkscape:cx="199.16139"
     inkscape:cy="199.16139"
     inkscape:window-x="-8"
     inkscape:window-y="-8"
     inkscape:window-maximized="1"
     inkscape:current-layer="g1443" /><g
     id="g1443"
     inkscape:groupmode="layer"
     inkscape:label="ink_ext_XXXXXX"
     transform="matrix(1.3333333,0,0,-1.3333333,-211.83526,725.16338)"><g
       id="g1445"
       transform="scale(0.1)"><g
         id="g1447"><g
           id="g1449"
           clip-path="url(#clipPath1453)"><path
             d="m 2333.37,4694.12 h 166.47 v 166.47 h 166.46 v -166.47 h 166.47 v 166.47 H 2666.3 v 166.46 h 166.47 v 166.47 h 166.47 v 166.46 h 166.47 v -166.46 h 166.46 v -166.47 h 166.47 v -166.46 h -166.47 v -166.47 h 166.47 v 166.47 h 166.47 v -166.47 h 166.46 v -166.47 h 166.47 v -166.47 h -166.47 v -166.46 h 166.47 v 166.46 h 166.47 v -166.46 h 166.46 v -166.47 h 166.47 v -166.46 h -166.47 v -166.47 h -166.46 v -166.47"
             style="fill:none;stroke:#000000;stroke-width:7.49100018;stroke-linecap:round;stroke-linejoin:round;stroke-miterlimit:10;stroke-dasharray:none;stroke-opacity:1"
             id="path1455"
             inkscape:connector-curvature="0" /><path
             d="m 4164.51,3528.85 h -166.47 v 166.47 h -166.47 v -166.47 h 166.47 v -166.46 h -166.47 v -166.47 h -166.46 v -166.47 h -166.47 v 166.47 h -166.47 v -166.47 h 166.47 v -166.47 h -166.47 v -166.46 h -166.46 v -166.47 h -166.47 v 166.47 h -166.47 v 166.46 H 2666.3 v 166.47 h 166.47 v 166.47 H 2666.3 v -166.47 h -166.46 v 166.47 h -166.47 v 166.47 h -166.46 v 166.46 h 166.46 v 166.47 h -166.46 v -166.47 h -166.47 v 166.47"
             style="fill:none;stroke:#000000;stroke-width:7.49100018;stroke-linecap:round;stroke-linejoin:round;stroke-miterlimit:10;stroke-dasharray:none;stroke-opacity:1"
             id="path1457"
             inkscape:connector-curvature="0" /><path
             d="m 2000.44,3695.32 h -166.47 v 166.47 h -166.46 v 166.46 h 166.46 v 166.47 h 166.47 v 166.46 h 166.47 v -166.46 h 166.46 v 166.46 h -166.46 v 166.47 h 166.46 v 166.47"
             style="fill:none;stroke:#000000;stroke-width:7.49100018;stroke-linecap:round;stroke-linejoin:round;stroke-miterlimit:10;stroke-dasharray:none;stroke-opacity:1"
             id="path1459"
             inkscape:connector-curvature="0" /></g></g></g></g></svg>