<?xml version="1.0" encoding="UTF-8" standalone="no"?>
<!-- Created with Inkscape (http://www.inkscape.org/) -->

<svg
   xmlns:dc="http://purl.org/dc/elements/1.1/"
   xmlns:cc="http://creativecommons.org/ns#"
   xmlns:rdf="http://www.w3.org/1999/02/22-rdf-syntax-ns#"
   xmlns:svg="http://www.w3.org/2000/svg"
   xmlns="http://www.w3.org/2000/svg"
   xmlns:sodipodi="http://sodipodi.sourceforge.net/DTD/sodipodi-0.dtd"
   xmlns:inkscape="http://www.inkscape.org/namespaces/inkscape"
   version="1.1"
   id="svg4401"
   xml:space="preserve"
   width="221.78604"
   height="221.78604"
   viewBox="0 0 221.78604 221.78603"
   sodipodi:docname="menger-1.svg"
   inkscape:version="0.92.4 (5da689c313, 2019-01-14)"><metadata
     id="metadata4407"><rdf:RDF><cc:Work
         rdf:about=""><dc:format>image/svg+xml</dc:format><dc:type
           rdf:resource="http://purl.org/dc/dcmitype/StillImage" /><dc:title></dc:title></cc:Work></rdf:RDF></metadata><defs
     id="defs4405"><clipPath
       clipPathUnits="userSpaceOnUse"
       id="clipPath4419"><path
         d="m 513.059,1810.08 h 5101.37 V 6109.92 H 513.059 Z"
         id="path4417"
         inkscape:connector-curvature="0" /></clipPath></defs><sodipodi:namedview
     pagecolor="#ffffff"
     bordercolor="#666666"
     borderopacity="1"
     objecttolerance="10"
     gridtolerance="10"
     guidetolerance="10"
     inkscape:pageopacity="0"
     inkscape:pageshadow="2"
     inkscape:window-width="640"
     inkscape:window-height="480"
     id="namedview4403"
     showgrid="false"
     fit-margin-top="10"
     fit-margin-bottom="10"
     fit-margin-left="10"
     fit-margin-right="10"
     inkscape:zoom="0.63153202"
     inkscape:cx="96.56369"
     inkscape:cy="116.2597"
     inkscape:current-layer="g4409" /><g
     id="g4409"
     inkscape:groupmode="layer"
     inkscape:label="ink_ext_XXXXXX"
     transform="matrix(1.3333333,0,0,-1.3333333,-300.10297,666.85968)"><g
       id="g4411"
       transform="scale(0.1)"><g
         id="g4413"><g
           id="g4415"
           clip-path="url(#clipPath4419)"><path
             d="m 2333.37,4918.85 h 499.4 v -499.4 h -499.4 v 499.4"
             style="fill:none;stroke:#000000;stroke-width:14.98200035;stroke-linecap:round;stroke-linejoin:round;stroke-miterlimit:10;stroke-dasharray:none;stroke-opacity:1"
             id="path4421"
             inkscape:connector-curvature="0" /><path
             d="m 2832.77,4918.85 h 499.4 v -499.4 h -499.4 v 499.4"
             style="fill:none;stroke:#000000;stroke-width:14.98200035;stroke-linecap:round;stroke-linejoin:round;stroke-miterlimit:10;stroke-dasharray:none;stroke-opacity:1"
             id="path4423"
             inkscape:connector-curvature="0" /><path
             d="m 3332.17,4918.85 h 499.4 v -499.4 h -499.4 v 499.4"
             style="fill:none;stroke:#000000;stroke-width:14.98200035;stroke-linecap:round;stroke-linejoin:round;stroke-miterlimit:10;stroke-dasharray:none;stroke-opacity:1"
             id="path4425"
             inkscape:connector-curvature="0" /><path
             d="m 3831.57,4419.45 v -499.4 h -499.4 v 499.4 h 499.4"
             style="fill:none;stroke:#000000;stroke-width:14.98200035;stroke-linecap:round;stroke-linejoin:round;stroke-miterlimit:10;stroke-dasharray:none;stroke-opacity:1"
             id="path4427"
             inkscape:connector-curvature="0" /><path
             d="m 3831.57,3920.05 v -499.4 h -499.4 v 499.4 h 499.4"
             style="fill:none;stroke:#000000;stroke-width:14.98200035;stroke-linecap:round;stroke-linejoin:round;stroke-miterlimit:10;stroke-dasharray:none;stroke-opacity:1"
             id="path4429"
             inkscape:connector-curvature="0" /><path
             d="m 3332.17,3420.65 h -499.4 v 499.4 h 499.4 v -499.4"
             style="fill:none;stroke:#000000;stroke-width:14.98200035;stroke-linecap:round;stroke-linejoin:round;stroke-miterlimit:10;stroke-dasharray:none;stroke-opacity:1"
             id="path4431"
             inkscape:connector-curvature="0" /><path
             d="m 2832.77,3420.65 h -499.4 v 499.4 h 499.4 v -499.4"
             style="fill:none;stroke:#000000;stroke-width:14.98200035;stroke-linecap:round;stroke-linejoin:round;stroke-miterlimit:10;stroke-dasharray:none;stroke-opacity:1"
             id="path4433"
             inkscape:connector-curvature="0" /><path
             d="m 2333.37,3920.05 v 499.4 h 499.4 v -499.4 h -499.4"
             style="fill:none;stroke:#000000;stroke-width:14.98200035;stroke-linecap:round;stroke-linejoin:round;stroke-miterlimit:10;stroke-dasharray:none;stroke-opacity:1"
             id="path4435"
             inkscape:connector-curvature="0" /></g></g></g></g></svg>