<?xml version="1.0" encoding="UTF-8" standalone="no"?>
<!-- Created with Inkscape (http://www.inkscape.org/) -->

<svg
   xmlns:dc="http://purl.org/dc/elements/1.1/"
   xmlns:cc="http://creativecommons.org/ns#"
   xmlns:rdf="http://www.w3.org/1999/02/22-rdf-syntax-ns#"
   xmlns:svg="http://www.w3.org/2000/svg"
   xmlns="http://www.w3.org/2000/svg"
   xmlns:sodipodi="http://sodipodi.sourceforge.net/DTD/sodipodi-0.dtd"
   xmlns:inkscape="http://www.inkscape.org/namespaces/inkscape"
   version="1.1"
   id="svg25753"
   xml:space="preserve"
   width="349.16135"
   height="174.02959"
   viewBox="0 0 349.16135 174.02958"
   sodipodi:docname="menger-1-raute.svg"
   inkscape:version="0.92.4 (5da689c313, 2019-01-14)"><metadata
     id="metadata25759"><rdf:RDF><cc:Work
         rdf:about=""><dc:format>image/svg+xml</dc:format><dc:type
           rdf:resource="http://purl.org/dc/dcmitype/StillImage" /><dc:title></dc:title></cc:Work></rdf:RDF></metadata><defs
     id="defs25757"><clipPath
       clipPathUnits="userSpaceOnUse"
       id="clipPath25771"><path
         d="m 513.059,1810.08 h 5101.37 V 6109.92 H 513.059 Z"
         id="path25769"
         inkscape:connector-curvature="0" /></clipPath></defs><sodipodi:namedview
     pagecolor="#ffffff"
     bordercolor="#666666"
     borderopacity="1"
     objecttolerance="10"
     gridtolerance="10"
     guidetolerance="10"
     inkscape:pageopacity="0"
     inkscape:pageshadow="2"
     inkscape:window-width="640"
     inkscape:window-height="480"
     id="namedview25755"
     showgrid="false"
     fit-margin-top="10"
     fit-margin-bottom="10"
     fit-margin-left="10"
     fit-margin-right="10"
     inkscape:zoom="3.0873979"
     inkscape:cx="174.58067"
     inkscape:cy="87.014793"
     inkscape:current-layer="g25761" /><g
     id="g25761"
     inkscape:groupmode="layer"
     inkscape:label="ink_ext_XXXXXX"
     transform="matrix(1.3333333,0,0,-1.3333333,-172.21399,666.35151)"><g
       id="g25763"
       transform="scale(0.1)"><g
         id="g25765"><g
           id="g25767"
           clip-path="url(#clipPath25771)"><path
             d="m 2333.37,4918.85 h 499.4 l -321,-382.56 h -499.41 l 321.01,382.56"
             style="fill:#d3d3d3;fill-opacity:1;fill-rule:evenodd;stroke:none"
             id="path25773"
             inkscape:connector-curvature="0" /><path
             d="m 2333.37,4918.85 h 499.4 l -321,-382.56 h -499.41 l 321.01,382.56"
             style="fill:none;stroke:#000000;stroke-width:7.49100018;stroke-linecap:round;stroke-linejoin:round;stroke-miterlimit:10;stroke-dasharray:none;stroke-opacity:1"
             id="path25775"
             inkscape:connector-curvature="0" /><path
             d="m 2832.77,4918.85 h 499.4 l -321.01,-382.56 h -499.39 l 321,382.56"
             style="fill:#d3d3d3;fill-opacity:1;fill-rule:evenodd;stroke:none"
             id="path25777"
             inkscape:connector-curvature="0" /><path
             d="m 2832.77,4918.85 h 499.4 l -321.01,-382.56 h -499.39 l 321,382.56"
             style="fill:none;stroke:#000000;stroke-width:7.49100018;stroke-linecap:round;stroke-linejoin:round;stroke-miterlimit:10;stroke-dasharray:none;stroke-opacity:1"
             id="path25779"
             inkscape:connector-curvature="0" /><path
             d="m 3332.17,4918.85 h 499.4 l -321,-382.56 h -499.41 l 321.01,382.56"
             style="fill:#d3d3d3;fill-opacity:1;fill-rule:evenodd;stroke:none"
             id="path25781"
             inkscape:connector-curvature="0" /><path
             d="m 3332.17,4918.85 h 499.4 l -321,-382.56 h -499.41 l 321.01,382.56"
             style="fill:none;stroke:#000000;stroke-width:7.49100018;stroke-linecap:round;stroke-linejoin:round;stroke-miterlimit:10;stroke-dasharray:none;stroke-opacity:1"
             id="path25783"
             inkscape:connector-curvature="0" /><path
             d="m 3011.16,4536.29 h 499.41 l -321.01,-382.57 h -499.4 l 321,382.57"
             style="fill:#d3d3d3;fill-opacity:1;fill-rule:evenodd;stroke:none"
             id="path25785"
             inkscape:connector-curvature="0" /><path
             d="m 3011.16,4536.29 h 499.41 l -321.01,-382.57 h -499.4 l 321,382.57"
             style="fill:none;stroke:#000000;stroke-width:7.49100018;stroke-linecap:round;stroke-linejoin:round;stroke-miterlimit:10;stroke-dasharray:none;stroke-opacity:1"
             id="path25787"
             inkscape:connector-curvature="0" /><path
             d="m 2690.16,4153.72 h 499.4 l -321.01,-382.56 h -499.4 l 321.01,382.56"
             style="fill:#d3d3d3;fill-opacity:1;fill-rule:evenodd;stroke:none"
             id="path25789"
             inkscape:connector-curvature="0" /><path
             d="m 2690.16,4153.72 h 499.4 l -321.01,-382.56 h -499.4 l 321.01,382.56"
             style="fill:none;stroke:#000000;stroke-width:7.49100018;stroke-linecap:round;stroke-linejoin:round;stroke-miterlimit:10;stroke-dasharray:none;stroke-opacity:1"
             id="path25791"
             inkscape:connector-curvature="0" /><path
             d="m 2190.76,4153.72 h 499.4 l -321.01,-382.56 h -499.4 l 321.01,382.56 v 0"
             style="fill:#d3d3d3;fill-opacity:1;fill-rule:evenodd;stroke:none"
             id="path25793"
             inkscape:connector-curvature="0" /><path
             d="m 2190.76,4153.72 h 499.4 l -321.01,-382.56 h -499.4 l 321.01,382.56"
             style="fill:none;stroke:#000000;stroke-width:7.49100018;stroke-linecap:round;stroke-linejoin:round;stroke-miterlimit:10;stroke-dasharray:none;stroke-opacity:1"
             id="path25795"
             inkscape:connector-curvature="0" /><path
             d="m 1691.36,4153.72 h 499.4 l -321.01,-382.56 h -499.4 l 321.01,382.56 v 0"
             style="fill:#d3d3d3;fill-opacity:1;fill-rule:evenodd;stroke:none"
             id="path25797"
             inkscape:connector-curvature="0" /><path
             d="m 1691.36,4153.72 h 499.4 l -321.01,-382.56 h -499.4 l 321.01,382.56"
             style="fill:none;stroke:#000000;stroke-width:7.49100018;stroke-linecap:round;stroke-linejoin:round;stroke-miterlimit:10;stroke-dasharray:none;stroke-opacity:1"
             id="path25799"
             inkscape:connector-curvature="0" /><path
             d="m 2012.36,4536.29 h 499.41 l -321.01,-382.57 h -499.4 l 321,382.57"
             style="fill:#d3d3d3;fill-opacity:1;fill-rule:evenodd;stroke:none"
             id="path25801"
             inkscape:connector-curvature="0" /><path
             d="m 2012.36,4536.29 h 499.41 l -321.01,-382.57 h -499.4 l 321,382.57"
             style="fill:none;stroke:#000000;stroke-width:7.49100018;stroke-linecap:round;stroke-linejoin:round;stroke-miterlimit:10;stroke-dasharray:none;stroke-opacity:1"
             id="path25803"
             inkscape:connector-curvature="0" /></g></g></g></g></svg>